{
    "OVERWRITE_CONFIG": false,
    "OVERRIDE_CONFIG": false,
    "networkPort": 8080,
    "whitelist": {
        "./noticesdyn.html": [
            "./",
            "./notices",
            "./notices.html"
        ],
        "./client_notices_edit.js": [
            "./client_notices_edit.js"
        ],
        "./client_notices.js": [
            "./client_notices.js"
        ],
        "./dailyNotices.css": [
            "./dailyNotices.css"
        ],
        "./src/school_song.ogg": [
            "./school_song.ogg"
        ],
        "./src/eddie_rice.ogg": [
            "./eddie_rice.ogg"
        ],
        "./img/civica.png": [
            "./img/civica.png"
        ],
        "./img/crest.png": [
            "./img/crest.png"
        ],
        "./img/thumb.png": [
            "./img/thumb.png"
        ],
        "./img/icons/PLACEHOLDER.png": [
            "./img/icons/PLACEHOLDER.png"
        ],
        "./img/icons/ACTIVITY.png": [
            "./img/icons/ACTIVITY.png"
        ],
        "./img/icons/BASKETBALL.png": [
            "./img/icons/BASKETBALL.png"
        ],
        "./img/icons/CHESS.png": [
            "./img/icons/CHESS.png"
        ],
        "./img/icons/DEBATE.png": [
            "./img/icons/DEBATE.png"
        ],
        "./img/icons/FAITH.png": [
            "./img/icons/FAITH.png"
        ],
        "./img/icons/MUSIC.png": [
            "./img/icons/MUSIC.png"
        ],
        "./img/icons/ROBOTS.png": [
            "./img/icons/ROBOTS.png"
        ],
        "./img/icons/RUGBY.png": [
            "./img/icons/RUGBY.png"
        ],
        "./img/icons/SCHOOL.png": [
            "./img/icons/SCHOOL.png"
        ],
        "./img/icons/SOCCER.png": [
            "./img/icons/SOCCER.png"
        ],
        "./img/icons/SUBJECT.png": [
            "./img/icons/SUBJECT.png"
        ],
        "./img/icons/TENNIS.png": [
            "./img/icons/TENNIS.png"
        ],
        "./418.html": [
            "./1337-hax0r.xyz",
            "./418"
        ],
        "./img/error418.png": [
            "./img/error418.png"
        ],
        "./fonts/EmojiSymbols.woff": [
            "./fonts/EmojiSymbols.woff"
        ],
        "./fonts/adelle-eb.woff": [
            "./fonts/adelle-eb.woff"
        ],
        "./doc/main.html": [
            "./doc"
        ],
        "./doc/docLite_spx.css": [
            "./doc/docLite_spx.css"
        ],
        "./doc/hljs_hopscotch.css": [
            "./doc/hljs_hopscotch.css"
        ],
        "./doc/highlight.pack.js": [
            "./doc/highlight.pack.js"
        ],
        "./img/markupguide.png": [
            "./img/markupguide.png"
        ],
        "./img/textmarkupexample.png": [
            "./img/textmarkupexample.png"
        ],
        "./img/textmarkupresult.png": [
            "./img/textmarkupresult.png"
        ]
    },
    "errorPages": {
        "403": "./403.html",
        "404": "./404.html",
        "418": "./418.html",
        "500": "./500.html"
    },
    "mimeTypes": {
        "": "text/html",
        ".html": "text/html",
        ".js": "text/javascript",
        ".css": "text/css",
        ".json": "application/json",
        ".png": "image/png",
        ".jpg": "image/jpg",
        ".gif": "image/gif",
        ".wav": "audio/wav",
        ".mp3": "audio/mp3",
        ".mp4": "video/mp4",
        ".ogg": "audio/ogg",
        ".woff": "application/font-woff",
        ".ttf": "application/font-ttf",
        ".eot": "application/vnd.ms-fontobject",
        ".otf": "application/font-otf",
        ".svg": "application/image/svg+xml"
    }
}